{"meta": {"limit": 17, "next": "/api/v1/templates/?orientation=any&limit=17&offset=17", "offset": 0, "previous": null, "total_count": 790}, "objects": [{"fileassets": [{"id": 70281, "url": "https://dsbackend.s3.amazonaws.com/fileassets/4bdbf0fe6a7e4c8e8264963c4c7d06bf/5c0a0d2d69b5440ba5706ab0c4bc585f/image.jpg", "usage": "thumbnail"}], "groups": ["Customer", "Fly", "Holiday", "Offer", "Promotion", "Travel"], "id": 3503569, "name": "Air Travel Transportation", "ratios": [[2160, 3840]], "resource_uri": "/api/v1/templates/3503569/", "uuid": "4dd2f8a27ffa45b39651c948fa5adea9"}, {"fileassets": [{"id": 53485, "url": "https://dsbackend.s3.amazonaws.com/fileassets/4bdbf0fe6a7e4c8e8264963c4c7d06bf/920db005f9da4f9f9d978f345d85f741/image.jpg", "usage": "thumbnail"}], "groups": ["Christmas", "Customer", "Offer", "Promotion", "Sale", "Store"], "id": 1707613, "name": "Christmas Sales", "ratios": [[1920, 1080]], "resource_uri": "/api/v1/templates/1707613/", "uuid": "427fcc1f68e0424f9081954b603cbe36"}, {"fileassets": [{"id": 70130, "url": "https://dsbackend.s3.amazonaws.com/fileassets/4bdbf0fe6a7e4c8e8264963c4c7d06bf/703a117f8fab4296a16aeefc0d07a90d/image.jpg", "usage": "thumbnail"}], "groups": ["Advertising", "Customer", "Holiday", "Offer", "Promotion", "Store"], "id": 5567713, "name": "Grab a Pretzel", "ratios": [[3840, 2160]], "resource_uri": "/api/v1/templates/5567713/", "uuid": "ec53cc34d234410caecc615936ef1197"}, {"fileassets": [{"id": 50491, "url": "https://dsbackend.s3.amazonaws.com/fileassets/4bdbf0fe6a7e4c8e8264963c4c7d06bf/7d8824814a5d44caa3d265f62ed98b29/image.jpg", "usage": "thumbnail"}], "groups": ["Cruise", "Customer", "Holiday", "Offer", "Promotion", "Store"], "id": 708840, "name": "Travel Agency | Caribbean Cruise", "ratios": [[3840, 2160]], "resource_uri": "/api/v1/templates/708840/", "uuid": "c64e72743f2e4270be514c010b8e649b"}, {"fileassets": [{"id": 57331, "url": "https://dsbackend.s3.amazonaws.com/fileassets/4bdbf0fe6a7e4c8e8264963c4c7d06bf/f64f00254a874512a84ff3c60ac7923f/image.jpg", "usage": "thumbnail"}, {"id": 57332, "url": "https://dsbackend.s3.amazonaws.com/fileassets/4bdbf0fe6a7e4c8e8264963c4c7d06bf/0cdea48cef634a18beefcb52076ee441/video.mp4", "usage": "thumbnail-vid"}, {"id": 57333, "url": "https://dsbackend.s3.amazonaws.com/fileassets/4bdbf0fe6a7e4c8e8264963c4c7d06bf/3f560f7c25fe40e6a2f46096c28358e1/video.mp4", "usage": "playback"}], "groups": ["Customer", "Deal", "Offer", "Promotion", "Special", "Store"], "id": 2712786, "name": "1+1 Coffee Offer", "ratios": [[1920, 1080]], "resource_uri": "/api/v1/templates/2712786/", "uuid": "b6fd11a6ab014d1092cb46ecbbb24b96"}, {"fileassets": [{"id": 70157, "url": "https://dsbackend.s3.amazonaws.com/fileassets/4bdbf0fe6a7e4c8e8264963c4c7d06bf/62bc6799866940fea39211fe2f0ff3b5/image.jpg", "usage": "thumbnail"}], "groups": ["Customer", "Deal", "Fly", "Offer", "Promotion", "Travel"], "id": 3503484, "name": "Air Travel Agency l Airplane", "ratios": [[3840, 2160]], "resource_uri": "/api/v1/templates/3503484/", "uuid": "f7c534d97a43402396871281a600d729"}, {"fileassets": [{"id": 50472, "url": "https://dsbackend.s3.amazonaws.com/fileassets/4bdbf0fe6a7e4c8e8264963c4c7d06bf/197b7a53491d4fc3b3eefb4a28b1e700/image.jpg", "usage": "thumbnail"}], "groups": ["Advertising", "Cocktail", "Drink", "Offer", "Price"], "id": 720938, "name": "All Industries | Commercial (2)", "ratios": [[1920, 1080]], "resource_uri": "/api/v1/templates/720938/", "uuid": "3b563874d4224158817819eee4fa1d2b"}, {"fileassets": [{"id": 50407, "url": "https://dsbackend.s3.amazonaws.com/fileassets/4bdbf0fe6a7e4c8e8264963c4c7d06bf/7ad7018b74b6428e9920a464a72c4d2b/image.jpg", "usage": "thumbnail"}, {"id": 50408, "url": "https://dsbackend.s3.amazonaws.com/fileassets/4bdbf0fe6a7e4c8e8264963c4c7d06bf/d325eb9b6b244ff2baa8abc0ac4076e1/video.mp4", "usage": "thumbnail-vid"}, {"id": 50409, "url": "https://dsbackend.s3.amazonaws.com/fileassets/4bdbf0fe6a7e4c8e8264963c4c7d06bf/6e078c174f5a4a3da9a664e7963d2e72/video.mp4", "usage": "playback"}], "groups": ["Advertising", "Cocktail", "Drink", "Offer", "Price"], "id": 809117, "name": "All Industries | Commercial (2) (Animated)", "ratios": [[1920, 1080]], "resource_uri": "/api/v1/templates/809117/", "uuid": "d4b7f92beed74ab1b3fda24620f9fcb6"}, {"fileassets": [{"id": 65529, "url": "https://dsbackend.s3.amazonaws.com/fileassets/4bdbf0fe6a7e4c8e8264963c4c7d06bf/90af0b0c810841d6aa5ca0362332fbca/image.jpg", "usage": "thumbnail"}], "groups": ["Customer", "Deal", "Football", "Offer", "Promotion", "Store"], "id": 5128894, "name": "American Football Event", "ratios": [[3840, 2160]], "resource_uri": "/api/v1/templates/5128894/", "uuid": "abd984d723b24854a98f80e6ad511404"}, {"fileassets": [{"id": 50515, "url": "https://dsbackend.s3.amazonaws.com/fileassets/4bdbf0fe6a7e4c8e8264963c4c7d06bf/49a3c7089b3746979b9c7aab4a842179/image.jpg", "usage": "thumbnail"}], "groups": ["Car", "Customer", "Offer", "Promotion", "Service", "Taxi"], "id": 708713, "name": "Automotive | Taxi service on demand", "ratios": [[3840, 2160]], "resource_uri": "/api/v1/templates/708713/", "uuid": "516deab8e4124b5995c79deb18c0ace7"}, {"fileassets": [{"id": 62141, "url": "https://dsbackend.s3.amazonaws.com/fileassets/4bdbf0fe6a7e4c8e8264963c4c7d06bf/2eaeb03fcec44a1799fdc521a82e0bab/image.jpg", "usage": "thumbnail"}, {"id": 62142, "url": "https://dsbackend.s3.amazonaws.com/fileassets/4bdbf0fe6a7e4c8e8264963c4c7d06bf/1bc8db4726614c19acbbf2cd3350c869/video.mp4", "usage": "thumbnail-vid"}, {"id": 62143, "url": "https://dsbackend.s3.amazonaws.com/fileassets/4bdbf0fe6a7e4c8e8264963c4c7d06bf/7e469f6690334d958c39b3970298c5d8/video.mp4", "usage": "playback"}], "groups": ["Customer", "Deal", "Offer", "Promotion", "School", "Store"], "id": 4164197, "name": "Back To School 2", "ratios": [[3840, 2160]], "resource_uri": "/api/v1/templates/4164197/", "uuid": "ee3d3ff069f843868772e29489f32590"}, {"fileassets": [{"id": 62135, "url": "https://dsbackend.s3.amazonaws.com/fileassets/4bdbf0fe6a7e4c8e8264963c4c7d06bf/5b96a0894e2745a5ae94e8f75bc7cb4d/image.jpg", "usage": "thumbnail"}, {"id": 62136, "url": "https://dsbackend.s3.amazonaws.com/fileassets/4bdbf0fe6a7e4c8e8264963c4c7d06bf/8451c362730c483ea104ec1e950336df/video.mp4", "usage": "thumbnail-vid"}, {"id": 62137, "url": "https://dsbackend.s3.amazonaws.com/fileassets/4bdbf0fe6a7e4c8e8264963c4c7d06bf/d84e05a0f0354894850b733059e1bcb0/video.mp4", "usage": "playback"}], "groups": ["Customer", "Deal", "Offer", "Promotion", "School", "Store"], "id": 4164858, "name": "Back To School 4", "ratios": [[3840, 2160]], "resource_uri": "/api/v1/templates/4164858/", "uuid": "b890636257f145a4905ca966ecd81166"}, {"fileassets": [{"id": 62131, "url": "https://dsbackend.s3.amazonaws.com/fileassets/4bdbf0fe6a7e4c8e8264963c4c7d06bf/a3958160834d44768073e21d58cd4e87/image.jpg", "usage": "thumbnail"}], "groups": ["Customer", "Deal", "Offer", "Promotion", "School", "Special"], "id": 4165325, "name": "Back To School 5", "ratios": [[2160, 3840]], "resource_uri": "/api/v1/templates/4165325/", "uuid": "9bf408692a5b4391833fa3dc4203b194"}, {"fileassets": [{"id": 50273, "url": "https://dsbackend.s3.amazonaws.com/fileassets/4bdbf0fe6a7e4c8e8264963c4c7d06bf/059d615076044dcd9b4f73a510ba300b/image.jpg", "usage": "thumbnail"}, {"id": 50274, "url": "https://dsbackend.s3.amazonaws.com/fileassets/4bdbf0fe6a7e4c8e8264963c4c7d06bf/87df9810ba49442fa9a87b8cc177df0c/video.mp4", "usage": "thumbnail-vid"}, {"id": 50275, "url": "https://dsbackend.s3.amazonaws.com/fileassets/4bdbf0fe6a7e4c8e8264963c4c7d06bf/c90cc559330145ea81b9eff76abebf47/video.mp4", "usage": "playback"}], "groups": ["Bank", "Customer", "Deal", "Offer", "Promotion", "Store"], "id": 719006, "name": "Banks | Advertise products and services", "ratios": [[3840, 2160]], "resource_uri": "/api/v1/templates/719006/", "uuid": "ef1b717d45c2481bb809b397abcb77ff"}, {"fileassets": [{"id": 50657, "url": "https://dsbackend.s3.amazonaws.com/fileassets/4bdbf0fe6a7e4c8e8264963c4c7d06bf/9d227b8e1758498b86561e3b1a25cccf/image.jpg", "usage": "thumbnail"}], "groups": ["Customer", "Deal", "Exchange Rates", "Finance", "Promotion", "Store"], "id": 719024, "name": "Banks | Currency exchange rates", "ratios": [[3840, 2160]], "resource_uri": "/api/v1/templates/719024/", "uuid": "684693d4ce4e4f2e9fc14acd5a3b819c"}, {"fileassets": [{"id": 49018, "url": "https://dsbackend.s3.amazonaws.com/fileassets/4bdbf0fe6a7e4c8e8264963c4c7d06bf/f86a3088ec99450a9d79397d7af3b4f4/image.jpg", "usage": "thumbnail"}, {"id": 49019, "url": "https://dsbackend.s3.amazonaws.com/fileassets/4bdbf0fe6a7e4c8e8264963c4c7d06bf/9944eff2b6fb4adeb6324cd872c4d1ef/video.mp4", "usage": "thumbnail-vid"}, {"id": 49020, "url": "https://dsbackend.s3.amazonaws.com/fileassets/4bdbf0fe6a7e4c8e8264963c4c7d06bf/3f15c8d408ad4e54b7df14a02509a211/video.mp4", "usage": "playback"}], "groups": ["Advertisement", "Bank", "Customer", "Finance", "Offer", "Promotion"], "id": 718979, "name": "Banks | Finance tips", "ratios": [[3840, 2160]], "resource_uri": "/api/v1/templates/718979/", "uuid": "931b7321a1584c49a4000831e482c31c"}, {"fileassets": [{"id": 70368, "url": "https://dsbackend.s3.amazonaws.com/fileassets/4bdbf0fe6a7e4c8e8264963c4c7d06bf/1c4fce85161d41f78a2bdd57b337ddec/image.jpg", "usage": "thumbnail"}], "groups": ["Customer", "Deal", "Finance", "Home", "Offer", "Promotion"], "id": 710940, "name": "Banks | Home loan offer", "ratios": [[3840, 2160]], "resource_uri": "/api/v1/templates/710940/", "uuid": "007615fb83314b9bba1d47e66d24a07f"}]}